{
  "version": 6,
  "configurePresets": [
    {
      "name": "linux-debug",
      "displayName": "Linux Debug",
      "description": "Target the Windows Subsystem for Linux (WSL) or a remote Linux system.",
      "generator": "Ninja",
      "binaryDir": "${sourceDir}/out/build/${presetName}",
      "installDir": "${sourceDir}/out/install/${presetName}",
      "cacheVariables": { "CMAKE_BUILD_TYPE": "Debug" },
      "condition": {
        "type": "equals",
        "lhs": "${hostSystemName}",
        "rhs": "Linux"
      },
      "vendor": { "microsoft.com/VisualStudioRemoteSettings/CMake/2.0": { "remoteSourceRootDir": "$env{HOME}/.vs/$ms{projectDirName}" } }
    },
    {
      "name": "macos-debug",
      "displayName": "macOS Debug",
      "description": "Target a remote macOS system.",
      "generator": "Ninja",
      "binaryDir": "${sourceDir}/out/build/${presetName}",
      "installDir": "${sourceDir}/out/install/${presetName}",
      "cacheVariables": { "CMAKE_BUILD_TYPE": "Debug" },
      "condition": {
        "type": "equals",
        "lhs": "${hostSystemName}",
        "rhs": "Darwin"
      },
      "vendor": { "microsoft.com/VisualStudioRemoteSettings/CMake/1.0": { "sourceDir": "$env{HOME}/.vs/$ms{projectDirName}" } }
    }
  ]
}
